INSERT INTO `hosts`(`User_idUser`, `description`, `activity`) VALUES (10,'Description 16','cerealiculture'),
(20,'Description 1','viticulture'),
(30,'Description 2','viticulture'),
(40,'Description 3','fruitiere'),
(50,'Description 4','cerealiculture'),
(60,'Description 5','fruitiere'),
(70,'Description 6','viticulture'),
(80,'Description 7','fruitiere'),
(90,'Description 8','viticulture'),
(100,'Description 9','fruitiere'),
(15,'Description 10','viticulture'),
(25,'Description 11','maraichage'),
(35,'Description 12','cerealiculture'),
(45,'Description 13','fruitiere'),
(55,'Description 14','fruitiere'),
(65,'Description 15','viticulture'),
(75,'Description 16','fruitiere'),
(85,'Description 17','maraichage'),
(95,'Description 18','viticulture'),
(12,'Description 19','cerealiculture'),
(22,'Description 20','maraichage'),
(10,'Description 21','maraichage'),
(20,'Description 22','viticulture'),
(30,'Description 23','maraichage'),
(30,'Description 24','cerealiculture'),
(32,'Description 25','maraichage'),
(42,'Description 26','maraichage'),
(52,'Description 27','cerealiculture'),
(62,'Description 28','maraichage'),
(72,'Description 29','arboriculture'),
(82,'Description 30','arboriculture'),
(92,'Description 31','cerealiculture'),
(17,'Description 32','viticulture'),
(27,'Description 33','horticulture'),
(37,'Description 34','cerealiculture'),
(47,'Description 35','viticulture'),
(57,'Description 36','cerealiculture'),
(67,'Description 37','viticulture'),
(87,'Description 38','cerealiculture');