INSERT INTO `woofing`.`user_has_skill`(`User_idUser`,`Skill_idSkill`,`score`)
VALUES
(1,1,10),
(1,2,5),
(1,4,10),
(10,1,20),
(10,4,15),
(15,6,8),
(20,5,7),
(20,6,5),
(30,4,4),
(36,3,6),
(49,3,50),
(36,4,3),
(36,5,10),
(79,1,60),
(82,2,20),
(34,3,22),
(99,4,12),
(94,5,13),
(88,6,30),
(5,1,35);
